John Smith

Brian
Alexis
Ricardo
David

Brian
Kayla

Travis

John
Jane

Steve Harvey

Naruto

Death Note
Fate Zero
FMA Brotherhood
Code Geass
One Punch Man

Water
Milk

Coke
Dr. Pepper
Root Beer

Water
