Spencer Means

Aish Shashidhar

Brigette Krause

Jacob Szwejbka

Faezah Ali

Adya Modi

Maria Ocanas

Rebecca Wardall

Maria Ocanas

Aish Shashidhar
Rebecca Wardall
Lucas Kabela
Spencer Means

Brigette Krause

Lucas Kabela

Madeleine Williams

Brigette Krause

Maria Ocanas
